module gitlab.com/singh-gursharan/etag-middleware

go 1.14

require (
	github.com/google/go-cmp v0.5.6 // indirect
	github.com/labstack/echo v3.3.10+incompatible
	github.com/labstack/gommon v0.3.0 // indirect
	github.com/pkg/errors v0.9.1 // indirect
	github.com/stretchr/testify v1.7.0 // indirect
	golang.org/x/crypto v0.0.0-20210817164053-32db794688a5 // indirect
	gotest.tools v2.2.0+incompatible
)
